{
  "$schema": "vscode://schemas/color-theme",
  "type": "dark",
  "colors": {
    "activityBar.background": "#141414",
    "activityBar.foreground": "#5eff00",
    "activityBarBadge.background": "#203a23",
    "activityBarBadge.foreground": "#5eff00",
    "badge.background": "#203a23",
    "badge.foreground": "#5eff00",
    "breadcrumb.activeSelectionForeground": "#5eff00",
    "breadcrumb.focusForeground": "#cccccc",
    "breadcrumb.foreground": "#ccccccb3",
    "breadcrumbPicker.background": "#252526",
    "button.background": "#203a23",
    "button.foreground": "#5eff00",
    "button.hoverBackground": "#189923",
    "diffEditor.insertedTextBackground": "#3cff0050",
    "diffEditor.removedTextBackground": "#fc00006b",
    "editor.background": "#141414",
    "editor.findMatchBackground": "#515c6a",
    "editor.findMatchHighlightBackground": "#6fe64055",
    "editor.findRangeHighlightBackground": "#3a3d4166",
    "editor.foreground": "#5eff00",
    "editor.hoverHighlightBackground": "#264f7840",
    "editor.inactiveSelectionBackground": "#30453280",
    "editor.lineHighlightBackground": "#163011",
    "editor.lineHighlightBorder": "#163011",
    "editor.rangeHighlightBackground": "#ffffff0b",
    "editor.selectionBackground": "#1e7729",
    "editor.selectionHighlightBackground": "#2af33799",
    "editor.wordHighlightBackground": "#575757b8",
    "editor.wordHighlightStrongBackground": "#004972b8",
    "editorBracketMatch.background": "#0064001a",
    "editorBracketMatch.border": "#888888",
    "editorCodeLens.foreground": "#999999",
    "editorCursor.foreground": "#a6d1a3",
    "editorError.foreground": "#ea4646",
    "editorGroup.border": "#1fbe2c",
    "editorGroup.dropBackground": "#53595d80",
    "editorGroupHeader.noTabsBackground": "#141414",
    "editorGroupHeader.tabsBackground": "#141414",
    "editorGutter.addedBackground": "#25ffe2",
    "editorGutter.background": "#141414",
    "editorGutter.deletedBackground": "#ff000d",
    "editorGutter.modifiedBackground": "#ffa600",
    "editorHint.foreground": "#eeeeeeb3",
    "editorHoverWidget.background": "#2d2d30",
    "editorHoverWidget.border": "#5eff00",
    "editorIndentGuide.activeBackground": "#6b6b6b",
    "editorIndentGuide.background": "#3c4b3e",
    "editorInfo.foreground": "#008000",
    "editorLineNumber.activeForeground": "#5eff00",
    "editorLineNumber.foreground": "#858585",
    "editorLink.activeForeground": "#4e94ce",
    "editorMarkerNavigation.background": "#2d2d30",
    "editorMarkerNavigationError.background": "#ea4646",
    "editorMarkerNavigationInfo.background": "#008000",
    "editorMarkerNavigationWarning.background": "#4d9e4d",
    "editorOverviewRuler.addedForeground": "#007acc99",
    "editorOverviewRuler.border": "#7f7f7f4d",
    "editorOverviewRuler.bracketMatchForeground": "#a0a0a0",
    "editorOverviewRuler.commonContentForeground": "#60606066",
    "editorOverviewRuler.currentContentForeground": "#40c8ae80",
    "editorOverviewRuler.deletedForeground": "#007acc99",
    "editorOverviewRuler.errorForeground": "#ff1212b3",
    "editorOverviewRuler.findMatchForeground": "#f6b94db3",
    "editorOverviewRuler.incomingContentForeground": "#40a6ff80",
    "editorOverviewRuler.infoForeground": "#121288b3",
    "editorOverviewRuler.modifiedForeground": "#007acc99",
    "editorOverviewRuler.rangeHighlightForeground": "#007acc99",
    "editorOverviewRuler.selectionHighlightForeground": "#a0a0a0cc",
    "editorOverviewRuler.warningForeground": "#128812b3",
    "editorOverviewRuler.wordHighlightForeground": "#f1dcdccc",
    "editorOverviewRuler.wordHighlightStrongForeground": "#c0a0c0cc",
    "editorPane.background": "#141414",
    "editorRuler.foreground": "#5a5a5a",
    "editorSuggestWidget.background": "#2d2d30",
    "editorSuggestWidget.border": "#1fbe2c",
    "editorSuggestWidget.foreground": "#ffffff",
    "editorSuggestWidget.highlightForeground": "#5eff00",
    "editorSuggestWidget.selectedBackground": "#062f4a",
    "editorUnnecessaryCode.opacity": "#000000aa",
    "editorWarning.foreground": "#5eff00",
    "editorWhitespace.foreground": "#3c4b3e",
    "editorWidget.background": "#141414",
    "editorWidget.border": "#1fbe2c",
    "editorWidget.resizeBorder": "#1fbe2c",
    "extensionButton.prominentBackground": "#203a23",
    "extensionButton.prominentForeground": "#5eff00",
    "extensionButton.prominentHoverBackground": "#467e4c",
    "focusBorder": "#1fbe2c99",
    "gitDecoration.addedResourceForeground": "#81b88b",
    "gitDecoration.conflictingResourceForeground": "#6c6cc4",
    "gitDecoration.deletedResourceForeground": "#c74e39",
    "gitDecoration.ignoredResourceForeground": "#a7a8a9",
    "gitDecoration.modifiedResourceForeground": "#1fbe2c",
    "gitDecoration.submoduleResourceForeground": "#8db9e2",
    "gitDecoration.untrackedResourceForeground": "#73c991",
    "input.background": "#203a23",
    "input.foreground": "#5eff00",
    "input.placeholderForeground": "#cccccc80",
    "inputOption.activeBorder": "#1fbe2c",
    "inputValidation.errorBackground": "#5a1d1d",
    "inputValidation.errorBorder": "#be1100",
    "inputValidation.infoBackground": "#203a23",
    "inputValidation.infoBorder": "#1fbe2c",
    "inputValidation.warningBackground": "#352a05",
    "inputValidation.warningBorder": "#b89500",
    "list.activeSelectionBackground": "#163011",
    "list.activeSelectionForeground": "#5eff00",
    "list.dropBackground": "#203a23",
    "list.errorForeground": "#fc5538",
    "list.focusBackground": "#163011",
    "list.highlightForeground": "#5eff00",
    "list.hoverBackground": "#163011",
    "list.inactiveFocusBackground": "#163011",
    "list.inactiveSelectionBackground": "#163011",
    "list.invalidItemForeground": "#ffae00",
    "list.warningForeground": "#5eff00",
    "notificationLink.foreground": "#5eff00",
    "panel.background": "#141414",
    "panel.border": "#1fbe2c",
    "panel.dropBackground": "#ffffff1f",
    "panelTitle.activeBorder": "#5eff00",
    "panelTitle.activeForeground": "#5eff00",
    "panelTitle.inactiveForeground": "#e7e7e799",
    "peekView.border": "#1fbe2c",
    "peekViewEditor.background": "#042401",
    "peekViewEditor.matchHighlightBackground": "#5eff0067",
    "peekViewEditorGutter.background": "#042401",
    "peekViewResult.background": "#252526",
    "peekViewResult.fileForeground": "#ffffff",
    "peekViewResult.lineForeground": "#bbbbbb",
    "peekViewResult.matchHighlightBackground": "#ea5c004d",
    "peekViewResult.selectionBackground": "#3399ff33",
    "peekViewResult.selectionForeground": "#ffffff",
    "peekViewTitle.background": "#103600",
    "peekViewTitleDescription.foreground": "#ccccccb3",
    "peekViewTitleLabel.foreground": "#5eff00",
    "pickerGroup.border": "#1fbe2c",
    "pickerGroup.foreground": "#5eff00",
    "progressBar.background": "#5eff00",
    "scrollbarSlider.activeBackground": "#5eff0050",
    "settings.checkboxBackground": "#3c3c3c",
    "settings.checkboxBorder": "#3c3c3c",
    "settings.checkboxForeground": "#f0f0f0",
    "settings.dropdownBackground": "#3c3c3c",
    "settings.dropdownBorder": "#3c3c3c",
    "settings.dropdownForeground": "#f0f0f0",
    "settings.headerForeground": "#e7e7e7",
    "settings.numberInputBackground": "#3c3c3c",
    "settings.numberInputForeground": "#cccccc",
    "settings.textInputBackground": "#3c3c3c",
    "settings.textInputForeground": "#cccccc",
    "sideBar.background": "#141414",
    "sideBar.dropBackground": "#203a23",
    "sideBarSectionHeader.background": "#242424",
    "statusBar.background": "#203a23",
    "statusBar.debuggingBackground": "#d68a18",
    "statusBar.debuggingForeground": "#5eff00",
    "statusBar.foreground": "#5eff00",
    "statusBar.noFolderBackground": "#203a23",
    "statusBar.noFolderForeground": "#5eff00",
    "tab.activeBackground": "#141414",
    "tab.activeBorder": "#1fbe2c",
    "tab.activeForeground": "#5eff00",
    "tab.border": "#141414",
    "tab.inactiveBackground": "#141414",
    "tab.inactiveForeground": "#c9fcab80",
    "tab.unfocusedActiveBorder": "#1fbe2c80",
    "tab.unfocusedActiveForeground": "#5eff0080",
    "tab.unfocusedInactiveForeground": "#c9fcab80",
    "textLink.activeForeground": "#125c12",
    "textLink.foreground": "#5eff00",
    "titleBar.activeBackground": "#141414",
    "titleBar.activeForeground": "#cccccc",
    "titleBar.inactiveBackground": "#3c3c3c99",
    "titleBar.inactiveForeground": "#cccccc99"
    //"activityBar.dropBackground": "#ffffff1f",
    //"debugExceptionWidget.background": "#420b0d",
    //"debugExceptionWidget.border": "#a31515",
    //"debugToolBar.background": "#333333",
    //"descriptionForeground": "#ccccccb3",
    //"dropdown.background": "#3c3c3c",
    //"dropdown.border": "#3c3c3c",
    //"dropdown.foreground": "#f0f0f0",
    //"editorActiveLineNumber.foreground": "#c6c6c6",
    //"errorForeground": "#f48771",
    //"foreground": "#cccccc",
    //"menu.background": "#141414",
    //"menu.selectionBackground": "#163011",
    //"menu.selectionForeground": "#5eff00",
    //"menubar.selectionBackground": "#ffffff1a",
    //"menubar.selectionForeground": "#cccccc",
    //"merge.commonContentBackground": "#60606029",
    //"merge.commonHeaderBackground": "#60606066",
    //"merge.currentContentBackground": "#40c8ae33",
    //"merge.currentHeaderBackground": "#40c8ae80",
    //"merge.incomingContentBackground": "#40a6ff33",
    //"merge.incomingHeaderBackground": "#40a6ff80",
    //"notificationCenterHeader.background": "#1a1a1a",
    //"notifications.background": "#141414",
    //"notifications.border": "#1a1a1a",
    //"scrollbar.shadow": "#000000",
    //"scrollbarSlider.background": "#79797966",
    //"scrollbarSlider.hoverBackground": "#646464b3",
    //"statusBarItem.activeBackground": "#ffffff2e",
    //"statusBarItem.hoverBackground": "#ffffff1f",
    //"statusBarItem.prominentBackground": "#388a34",
    //"statusBarItem.prominentHoverBackground": "#369432",
    //"terminal.ansiBlack": "#000000",
    //"terminal.ansiBlue": "#2472c8",
    //"terminal.ansiBrightBlack": "#666666",
    //"terminal.ansiBrightBlue": "#3b8eea",
    //"terminal.ansiBrightCyan": "#29b8db",
    //"terminal.ansiBrightGreen": "#23d18b",
    //"terminal.ansiBrightMagenta": "#d670d6",
    //"terminal.ansiBrightRed": "#f14c4c",
    //"terminal.ansiBrightWhite": "#e5e5e5",
    //"terminal.ansiBrightYellow": "#f5f543",
    //"terminal.ansiCyan": "#11a8cd",
    //"terminal.ansiGreen": "#0dbc79",
    //"terminal.ansiMagenta": "#bc3fbc",
    //"terminal.ansiRed": "#cd3131",
    //"terminal.ansiWhite": "#e5e5e5",
    //"terminal.ansiYellow": "#e5e510",
    //"terminal.foreground": "#cccccc",
    //"terminal.selectionBackground": "#ffffff40",
    //"textBlockQuote.background": "#7f7f7f1a",
    //"textBlockQuote.border": "#007acc80",
    //"textCodeBlock.background": "#0a0a0a66",
    //"textPreformat.foreground": "#d7ba7d",
    //"textSeparator.foreground": "#ffffff2e",
    //"widget.shadow": "#000000"
  },
  "tokenColors": [
    {
      "name": "Source",
      "scope": "source, meta",
      "settings": {
        "foreground": "#5eff00"
      }
    },
    {
      "name": "HTML Tag and Key",
      "scope": "entity.name.tag.html, punctuation.separator.key-value.html, meta.tag.block.any.html",
      "settings": {
        "foreground": "#f3ff6eff"
      }
    },
    {
      "name": "HTML Text",
      "scope": "text.html.derivative, string.quoted.double.html, text.html.vue-html",
      "settings": {
        "foreground": "#c8f8b6"
      }
    },
    {
      "name": "HTML Attribute",
      "scope": "entity.other.attribute-name.html, constant.character.entity.html, punctuation.definition.entity.html",
      "settings": {
        "foreground": "#5eff00"
      }
    },
    {
      "name": "Html Vue Tag and Key",
      "scope": "entity.name.tag.template.html, entity.name.tag.inline.any.html, entity.name.tag.script.html, entity.name.tag.style.html, entity.name.tag.block.any.html, entity.name.tag.other.html, punctuation.definition.tag.begin.html, punctuation.definition.tag.end.html, meta.tag.other.html",
      "settings": {
        "foreground": "#f3ff6eff"
      }
    },
    {
      "name": "Comment",
      "scope": "comment, punctuation.definition.comment",
      "settings": {
        "foreground": "#666666",
        "fontStyle": "italic"
      }
    },
    {
      "name": "String Literial",
      "scope": "string, punctuation.definition.string.begin, punctuation.definition.string.end",
      "settings": {
        "foreground": "#ffffff"
      }
    },
    {
      "name": "Number Literial",
      "scope": "constant.numeric",
      "settings": {
        "foreground": "#c8f8b6"
      }
    },
    {
      "name": "Variable",
      "scope": "variable",
      "settings": {
        "foreground": "#5eff00"
      }
    },
    {
      "name": "Keyword",
      "scope": "keyword, punctuation.terminator.statement, punctuation.curlybrace.open, punctuation.curlybrace.close",
      "settings": {
        "foreground": "#f3ff6e"
      }
    },
    {
      "name": "Punctuation block",
      "scope": "punctuation",
      "settings": {
        "foreground": "#5eff00",
        "fontStyle": ""
      }
    },
    {
      "name": "Regexp",
      "scope": "string.regexp",
      "settings": {
        "foreground": "#86ffd1"
      }
    },
    {
      "name": "Storage",
      "scope": "storage",
      "settings": {
        "foreground": "#f3ff6e",
        "fontStyle": ""
      }
    },
    {
      "name": "Class name",
      "scope": "entity",
      "settings": {
        "foreground": "#5eff00"
      }
    },
    {
      "name": "Function Related Colors",
      "scope": "entity.name.function, punctuation.parenthesis.open, punctuation.parenthesis.close, punctuation.separator.comma, meta.function-call, punctuation.section.function.begin, punctuation.definition.arguments.begin, punctuation.definition.arguments.end, punctuation.definition.parameters.begin, punctuation.definition.parameters.end, punctuation.separator.parameters, meta.brace.round",
      "settings": {
        "foreground": "#c8f8b6"
      }
    },
    {
      "name": "Function Sector",
      "scope": "meta.function-call.arguments",
      "settings": {
        "foreground": "#5eff00"
      }
    },
    {
      "name": "User-defined constant",
      "scope": "constant",
      "settings": {
        "foreground": "#c8f8b6"
      }
    },
    {
      "name": "Support Others",
      "scope": "support",
      "settings": {
        "foreground": "#c8f8b6"
      }
    },
    {
      "name": "Language Var",
      "scope": "variable.language",
      "settings": {
        "foreground": "#c8f8b6"
      }
    },
    {
      "name": "Support Var",
      "scope": "support.variable.property, support.variable.dom.",
      "settings": {
        "foreground": "#5eff00"
      }
    },
    {
      "name": "This Var",
      "scope": "variable.language.this",
      "settings": {
        "foreground": "#5eff00"
      }
    },
    {
      "scope": "token.info-token, token.debug-token",
      "settings": {
        "foreground": "#5eff00"
      }
    },
    {
      "scope": "token.warn-token",
      "settings": {
        "foreground": "#cd9731"
      }
    },
    {
      "scope": "token.error-token",
      "settings": {
        "foreground": "#f44747"
      }
    }
  ]
}
